{
    "id": "3735",
    "uid": "s:1100~l:1106~e:3735",
    "name": "World Golf Championships-Mexico Championship",
    "courses": [
        {
            "courseId": "10785",
            "name": "Club de Golf Chapultepec",
            "holes": [
                {
                    "holeNumber": 8,
                    "holePar": 4,
                    "holeYards": 525,
                    "holeStatistics": [
                        {
                            "name": "scoreToPar",
                            "displayName": "Score To Par",
                            "description": "Score To Par",
                            "abbreviation": "+/- AVG",
                            "value": 0.357,
                            "displayValue": "0.357"
                        },
                        {
                            "name": "avgScore",
                            "displayName": "Average Score",
                            "description": "Average Score",
                            "abbreviation": "AVG SCORE",
                            "value": 4.357,
                            "displayValue": "4.357"
                        },
                        {
                            "name": "eagles",
                            "displayName": "Eagles",
                            "description": "Number of Eagles",
                            "abbreviation": "EAGLES",
                            "value": 0.0,
                            "displayValue": "0"
                        },
                        {
                            "name": "birdies",
                            "displayName": "Birdies",
                            "description": "Number of Birdies",
                            "abbreviation": "BIRDIES",
                            "value": 24.0,
                            "displayValue": "24"
                        },
                        {
                            "name": "pars",
                            "displayName": "Pars",
                            "description": "Number of Pars",
                            "abbreviation": "PARS",
                            "value": 164.0,
                            "displayValue": "164"
                        },
                        {
                            "name": "bogeys",
                            "displayName": "Bogeys",
                            "description": "Number of Bogeys",
                            "abbreviation": "BOGEYS",
                            "value": 104.0,
                            "displayValue": "104"
                        },
                        {
                            "name": "dBogey",
                            "displayName": "Double Bogeys",
                            "description": "Number of Double Bogeys",
                            "abbreviation": "DOUBLES",
                            "value": 10.0,
                            "displayValue": "10"
                        },
                        {
                            "name": "dBogeyPlus",
                            "displayName": "Other",
                            "description": "Other",
                            "abbreviation": "OTHERS",
                            "value": 3.0,
                            "displayValue": "3"
                        },
                        {
                            "name": "rank",
                            "displayName": "Rank",
                            "description": "Rank",
                            "abbreviation": "Rank",
                            "value": 1.0,
                            "displayValue": "1"
                        }
                    ]
                },
                {
                    "holeNumber": 7,
                    "holePar": 3,
                    "holeYards": 235,
                    "holeStatistics": [
                        {
                            "name": "scoreToPar",
                            "displayName": "Score To Par",
                            "description": "Score To Par",
                            "abbreviation": "+/- AVG",
                            "value": 0.239,
                            "displayValue": "0.239"
                        },
                        {
                            "name": "avgScore",
                            "displayName": "Average Score",
                            "description": "Average Score",
                            "abbreviation": "AVG SCORE",
                            "value": 3.239,
                            "displayValue": "3.239"
                        },
                        {
                            "name": "eagles",
                            "displayName": "Eagles",
                            "description": "Number of Eagles",
                            "abbreviation": "EAGLES",
                            "value": 0.0,
                            "displayValue": "0"
                        },
                        {
                            "name": "birdies",
                            "displayName": "Birdies",
                            "description": "Number of Birdies",
                            "abbreviation": "BIRDIES",
                            "value": 22.0,
                            "displayValue": "22"
                        },
                        {
                            "name": "pars",
                            "displayName": "Pars",
                            "description": "Number of Pars",
                            "abbreviation": "PARS",
                            "value": 209.0,
                            "displayValue": "209"
                        },
                        {
                            "name": "bogeys",
                            "displayName": "Bogeys",
                            "description": "Number of Bogeys",
                            "abbreviation": "BOGEYS",
                            "value": 54.0,
                            "displayValue": "54"
                        },
                        {
                            "name": "dBogey",
                            "displayName": "Double Bogeys",
                            "description": "Number of Double Bogeys",
                            "abbreviation": "DOUBLES",
                            "value": 19.0,
                            "displayValue": "19"
                        },
                        {
                            "name": "dBogeyPlus",
                            "displayName": "Other",
                            "description": "Other",
                            "abbreviation": "OTHERS",
                            "value": 1.0,
                            "displayValue": "1"
                        },
                        {
                            "name": "rank",
                            "displayName": "Rank",
                            "description": "Rank",
                            "abbreviation": "Rank",
                            "value": 2.0,
                            "displayValue": "2"
                        }
                    ]
                },
                {
                    "holeNumber": 13,
                    "holePar": 3,
                    "holeYards": 225,
                    "holeStatistics": [
                        {
                            "name": "scoreToPar",
                            "displayName": "Score To Par",
                            "description": "Score To Par",
                            "abbreviation": "+/- AVG",
                            "value": 0.155,
                            "displayValue": "0.155"
                        },
                        {
                            "name": "avgScore",
                            "displayName": "Average Score",
                            "description": "Average Score",
                            "abbreviation": "AVG SCORE",
                            "value": 3.155,
                            "displayValue": "3.155"
                        },
                        {
                            "name": "eagles",
                            "displayName": "Eagles",
                            "description": "Number of Eagles",
                            "abbreviation": "EAGLES",
                            "value": 1.0,
                            "displayValue": "1"
                        },
                        {
                            "name": "birdies",
                            "displayName": "Birdies",
                            "description": "Number of Birdies",
                            "abbreviation": "BIRDIES",
                            "value": 19.0,
                            "displayValue": "19"
                        },
                        {
                            "name": "pars",
                            "displayName": "Pars",
                            "description": "Number of Pars",
                            "abbreviation": "PARS",
                            "value": 219.0,
                            "displayValue": "219"
                        },
                        {
                            "name": "bogeys",
                            "displayName": "Bogeys",
                            "description": "Number of Bogeys",
                            "abbreviation": "BOGEYS",
                            "value": 62.0,
                            "displayValue": "62"
                        },
                        {
                            "name": "dBogey",
                            "displayName": "Double Bogeys",
                            "description": "Number of Double Bogeys",
                            "abbreviation": "DOUBLES",
                            "value": 3.0,
                            "displayValue": "3"
                        },
                        {
                            "name": "dBogeyPlus",
                            "displayName": "Other",
                            "description": "Other",
                            "abbreviation": "OTHERS",
                            "value": 0.0,
                            "displayValue": "0"
                        },
                        {
                            "name": "rank",
                            "displayName": "Rank",
                            "description": "Rank",
                            "abbreviation": "Rank",
                            "value": 3.0,
                            "displayValue": "3"
                        }
                    ]
                },
                {
                    "holeNumber": 5,
                    "holePar": 4,
                    "holeYards": 445,
                    "holeStatistics": [
                        {
                            "name": "scoreToPar",
                            "displayName": "Score To Par",
                            "description": "Score To Par",
                            "abbreviation": "+/- AVG",
                            "value": 0.141,
                            "displayValue": "0.141"
                        },
                        {
                            "name": "avgScore",
                            "displayName": "Average Score",
                            "description": "Average Score",
                            "abbreviation": "AVG SCORE",
                            "value": 4.141,
                            "displayValue": "4.141"
                        },
                        {
                            "name": "eagles",
                            "displayName": "Eagles",
                            "description": "Number of Eagles",
                            "abbreviation": "EAGLES",
                            "value": 0.0,
                            "displayValue": "0"
                        },
                        {
                            "name": "birdies",
                            "displayName": "Birdies",
                            "description": "Number of Birdies",
                            "abbreviation": "BIRDIES",
                            "value": 46.0,
                            "displayValue": "46"
                        },
                        {
                            "name": "pars",
                            "displayName": "Pars",
                            "description": "Number of Pars",
                            "abbreviation": "PARS",
                            "value": 180.0,
                            "displayValue": "180"
                        },
                        {
                            "name": "bogeys",
                            "displayName": "Bogeys",
                            "description": "Number of Bogeys",
                            "abbreviation": "BOGEYS",
                            "value": 72.0,
                            "displayValue": "72"
                        },
                        {
                            "name": "dBogey",
                            "displayName": "Double Bogeys",
                            "description": "Number of Double Bogeys",
                            "abbreviation": "DOUBLES",
                            "value": 5.0,
                            "displayValue": "5"
                        },
                        {
                            "name": "dBogeyPlus",
                            "displayName": "Other",
                            "description": "Other",
                            "abbreviation": "OTHERS",
                            "value": 2.0,
                            "displayValue": "2"
                        },
                        {
                            "name": "rank",
                            "displayName": "Rank",
                            "description": "Rank",
                            "abbreviation": "Rank",
                            "value": 4.0,
                            "displayValue": "4"
                        }
                    ]
                },
                {
                    "holeNumber": 10,
                    "holePar": 4,
                    "holeYards": 450,
                    "holeStatistics": [
                        {
                            "name": "scoreToPar",
                            "displayName": "Score To Par",
                            "description": "Score To Par",
                            "abbreviation": "+/- AVG",
                            "value": 0.115,
                            "displayValue": "0.115"
                        },
                        {
                            "name": "avgScore",
                            "displayName": "Average Score",
                            "description": "Average Score",
                            "abbreviation": "AVG SCORE",
                            "value": 4.115,
                            "displayValue": "4.115"
                        },
                        {
                            "name": "eagles",
                            "displayName": "Eagles",
                            "description": "Number of Eagles",
                            "abbreviation": "EAGLES",
                            "value": 0.0,
                            "displayValue": "0"
                        },
                        {
                            "name": "birdies",
                            "displayName": "Birdies",
                            "description": "Number of Birdies",
                            "abbreviation": "BIRDIES",
                            "value": 47.0,
                            "displayValue": "47"
                        },
                        {
                            "name": "pars",
                            "displayName": "Pars",
                            "description": "Number of Pars",
                            "abbreviation": "PARS",
                            "value": 186.0,
                            "displayValue": "186"
                        },
                        {
                            "name": "bogeys",
                            "displayName": "Bogeys",
                            "description": "Number of Bogeys",
                            "abbreviation": "BOGEYS",
                            "value": 62.0,
                            "displayValue": "62"
                        },
                        {
                            "name": "dBogey",
                            "displayName": "Double Bogeys",
                            "description": "Number of Double Bogeys",
                            "abbreviation": "DOUBLES",
                            "value": 10.0,
                            "displayValue": "10"
                        },
                        {
                            "name": "dBogeyPlus",
                            "displayName": "Other",
                            "description": "Other",
                            "abbreviation": "OTHERS",
                            "value": 0.0,
                            "displayValue": "0"
                        },
                        {
                            "name": "rank",
                            "displayName": "Rank",
                            "description": "Rank",
                            "abbreviation": "Rank",
                            "value": 5.0,
                            "displayValue": "5"
                        }
                    ]
                },
                {
                    "holeNumber": 4,
                    "holePar": 4,
                    "holeYards": 506,
                    "holeStatistics": [
                        {
                            "name": "scoreToPar",
                            "displayName": "Score To Par",
                            "description": "Score To Par",
                            "abbreviation": "+/- AVG",
                            "value": 0.108,
                            "displayValue": "0.108"
                        },
                        {
                            "name": "avgScore",
                            "displayName": "Average Score",
                            "description": "Average Score",
                            "abbreviation": "AVG SCORE",
                            "value": 4.108,
                            "displayValue": "4.108"
                        },
                        {
                            "name": "eagles",
                            "displayName": "Eagles",
                            "description": "Number of Eagles",
                            "abbreviation": "EAGLES",
                            "value": 0.0,
                            "displayValue": "0"
                        },
                        {
                            "name": "birdies",
                            "displayName": "Birdies",
                            "description": "Number of Birdies",
                            "abbreviation": "BIRDIES",
                            "value": 35.0,
                            "displayValue": "35"
                        },
                        {
                            "name": "pars",
                            "displayName": "Pars",
                            "description": "Number of Pars",
                            "abbreviation": "PARS",
                            "value": 204.0,
                            "displayValue": "204"
                        },
                        {
                            "name": "bogeys",
                            "displayName": "Bogeys",
                            "description": "Number of Bogeys",
                            "abbreviation": "BOGEYS",
                            "value": 64.0,
                            "displayValue": "64"
                        },
                        {
                            "name": "dBogey",
                            "displayName": "Double Bogeys",
                            "description": "Number of Double Bogeys",
                            "abbreviation": "DOUBLES",
                            "value": 2.0,
                            "displayValue": "2"
                        },
                        {
                            "name": "dBogeyPlus",
                            "displayName": "Other",
                            "description": "Other",
                            "abbreviation": "OTHERS",
                            "value": 0.0,
                            "displayValue": "0"
                        },
                        {
                            "name": "rank",
                            "displayName": "Rank",
                            "description": "Rank",
                            "abbreviation": "Rank",
                            "value": 6.0,
                            "displayValue": "6"
                        }
                    ]
                },
                {
                    "holeNumber": 14,
                    "holePar": 4,
                    "holeYards": 482,
                    "holeStatistics": [
                        {
                            "name": "scoreToPar",
                            "displayName": "Score To Par",
                            "description": "Score To Par",
                            "abbreviation": "+/- AVG",
                            "value": 0.095,
                            "displayValue": "0.095"
                        },
                        {
                            "name": "avgScore",
                            "displayName": "Average Score",
                            "description": "Average Score",
                            "abbreviation": "AVG SCORE",
                            "value": 4.095,
                            "displayValue": "4.095"
                        },
                        {
                            "name": "eagles",
                            "displayName": "Eagles",
                            "description": "Number of Eagles",
                            "abbreviation": "EAGLES",
                            "value": 1.0,
                            "displayValue": "1"
                        },
                        {
                            "name": "birdies",
                            "displayName": "Birdies",
                            "description": "Number of Birdies",
                            "abbreviation": "BIRDIES",
                            "value": 38.0,
                            "displayValue": "38"
                        },
                        {
                            "name": "pars",
                            "displayName": "Pars",
                            "description": "Number of Pars",
                            "abbreviation": "PARS",
                            "value": 199.0,
                            "displayValue": "199"
                        },
                        {
                            "name": "bogeys",
                            "displayName": "Bogeys",
                            "description": "Number of Bogeys",
                            "abbreviation": "BOGEYS",
                            "value": 63.0,
                            "displayValue": "63"
                        },
                        {
                            "name": "dBogey",
                            "displayName": "Double Bogeys",
                            "description": "Number of Double Bogeys",
                            "abbreviation": "DOUBLES",
                            "value": 3.0,
                            "displayValue": "3"
                        },
                        {
                            "name": "dBogeyPlus",
                            "displayName": "Other",
                            "description": "Other",
                            "abbreviation": "OTHERS",
                            "value": 0.0,
                            "displayValue": "0"
                        },
                        {
                            "name": "rank",
                            "displayName": "Rank",
                            "description": "Rank",
                            "abbreviation": "Rank",
                            "value": 7.0,
                            "displayValue": "7"
                        }
                    ]
                },
                {
                    "holeNumber": 17,
                    "holePar": 3,
                    "holeYards": 172,
                    "holeStatistics": [
                        {
                            "name": "scoreToPar",
                            "displayName": "Score To Par",
                            "description": "Score To Par",
                            "abbreviation": "+/- AVG",
                            "value": 0.072,
                            "displayValue": "0.072"
                        },
                        {
                            "name": "avgScore",
                            "displayName": "Average Score",
                            "description": "Average Score",
                            "abbreviation": "AVG SCORE",
                            "value": 3.072,
                            "displayValue": "3.072"
                        },
                        {
                            "name": "eagles",
                            "displayName": "Eagles",
                            "description": "Number of Eagles",
                            "abbreviation": "EAGLES",
                            "value": 0.0,
                            "displayValue": "0"
                        },
                        {
                            "name": "birdies",
                            "displayName": "Birdies",
                            "description": "Number of Birdies",
                            "abbreviation": "BIRDIES",
                            "value": 29.0,
                            "displayValue": "29"
                        },
                        {
                            "name": "pars",
                            "displayName": "Pars",
                            "description": "Number of Pars",
                            "abbreviation": "PARS",
                            "value": 231.0,
                            "displayValue": "231"
                        },
                        {
                            "name": "bogeys",
                            "displayName": "Bogeys",
                            "description": "Number of Bogeys",
                            "abbreviation": "BOGEYS",
                            "value": 38.0,
                            "displayValue": "38"
                        },
                        {
                            "name": "dBogey",
                            "displayName": "Double Bogeys",
                            "description": "Number of Double Bogeys",
                            "abbreviation": "DOUBLES",
                            "value": 5.0,
                            "displayValue": "5"
                        },
                        {
                            "name": "dBogeyPlus",
                            "displayName": "Other",
                            "description": "Other",
                            "abbreviation": "OTHERS",
                            "value": 1.0,
                            "displayValue": "1"
                        },
                        {
                            "name": "rank",
                            "displayName": "Rank",
                            "description": "Rank",
                            "abbreviation": "Rank",
                            "value": 8.0,
                            "displayValue": "8"
                        }
                    ]
                },
                {
                    "holeNumber": 3,
                    "holePar": 3,
                    "holeYards": 186,
                    "holeStatistics": [
                        {
                            "name": "scoreToPar",
                            "displayName": "Score To Par",
                            "description": "Score To Par",
                            "abbreviation": "+/- AVG",
                            "value": 0.043,
                            "displayValue": "0.043"
                        },
                        {
                            "name": "avgScore",
                            "displayName": "Average Score",
                            "description": "Average Score",
                            "abbreviation": "AVG SCORE",
                            "value": 3.043,
                            "displayValue": "3.043"
                        },
                        {
                            "name": "eagles",
                            "displayName": "Eagles",
                            "description": "Number of Eagles",
                            "abbreviation": "EAGLES",
                            "value": 0.0,
                            "displayValue": "0"
                        },
                        {
                            "name": "birdies",
                            "displayName": "Birdies",
                            "description": "Number of Birdies",
                            "abbreviation": "BIRDIES",
                            "value": 48.0,
                            "displayValue": "48"
                        },
                        {
                            "name": "pars",
                            "displayName": "Pars",
                            "description": "Number of Pars",
                            "abbreviation": "PARS",
                            "value": 203.0,
                            "displayValue": "203"
                        },
                        {
                            "name": "bogeys",
                            "displayName": "Bogeys",
                            "description": "Number of Bogeys",
                            "abbreviation": "BOGEYS",
                            "value": 47.0,
                            "displayValue": "47"
                        },
                        {
                            "name": "dBogey",
                            "displayName": "Double Bogeys",
                            "description": "Number of Double Bogeys",
                            "abbreviation": "DOUBLES",
                            "value": 7.0,
                            "displayValue": "7"
                        },
                        {
                            "name": "dBogeyPlus",
                            "displayName": "Other",
                            "description": "Other",
                            "abbreviation": "OTHERS",
                            "value": 0.0,
                            "displayValue": "0"
                        },
                        {
                            "name": "rank",
                            "displayName": "Rank",
                            "description": "Rank",
                            "abbreviation": "Rank",
                            "value": 9.0,
                            "displayValue": "9"
                        }
                    ]
                },
                {
                    "holeNumber": 16,
                    "holePar": 4,
                    "holeYards": 403,
                    "holeStatistics": [
                        {
                            "name": "scoreToPar",
                            "displayName": "Score To Par",
                            "description": "Score To Par",
                            "abbreviation": "+/- AVG",
                            "value": 0.016,
                            "displayValue": "0.016"
                        },
                        {
                            "name": "avgScore",
                            "displayName": "Average Score",
                            "description": "Average Score",
                            "abbreviation": "AVG SCORE",
                            "value": 4.016,
                            "displayValue": "4.016"
                        },
                        {
                            "name": "eagles",
                            "displayName": "Eagles",
                            "description": "Number of Eagles",
                            "abbreviation": "EAGLES",
                            "value": 0.0,
                            "displayValue": "0"
                        },
                        {
                            "name": "birdies",
                            "displayName": "Birdies",
                            "description": "Number of Birdies",
                            "abbreviation": "BIRDIES",
                            "value": 57.0,
                            "displayValue": "57"
                        },
                        {
                            "name": "pars",
                            "displayName": "Pars",
                            "description": "Number of Pars",
                            "abbreviation": "PARS",
                            "value": 187.0,
                            "displayValue": "187"
                        },
                        {
                            "name": "bogeys",
                            "displayName": "Bogeys",
                            "description": "Number of Bogeys",
                            "abbreviation": "BOGEYS",
                            "value": 58.0,
                            "displayValue": "58"
                        },
                        {
                            "name": "dBogey",
                            "displayName": "Double Bogeys",
                            "description": "Number of Double Bogeys",
                            "abbreviation": "DOUBLES",
                            "value": 2.0,
                            "displayValue": "2"
                        },
                        {
                            "name": "dBogeyPlus",
                            "displayName": "Other",
                            "description": "Other",
                            "abbreviation": "OTHERS",
                            "value": 0.0,
                            "displayValue": "0"
                        },
                        {
                            "name": "rank",
                            "displayName": "Rank",
                            "description": "Rank",
                            "abbreviation": "Rank",
                            "value": 10.0,
                            "displayValue": "10"
                        }
                    ]
                },
                {
                    "holeNumber": 9,
                    "holePar": 4,
                    "holeYards": 382,
                    "holeStatistics": [
                        {
                            "name": "scoreToPar",
                            "displayName": "Score To Par",
                            "description": "Score To Par",
                            "abbreviation": "+/- AVG",
                            "value": -0.007,
                            "displayValue": "-0.007"
                        },
                        {
                            "name": "avgScore",
                            "displayName": "Average Score",
                            "description": "Average Score",
                            "abbreviation": "AVG SCORE",
                            "value": 3.993,
                            "displayValue": "3.993"
                        },
                        {
                            "name": "eagles",
                            "displayName": "Eagles",
                            "description": "Number of Eagles",
                            "abbreviation": "EAGLES",
                            "value": 1.0,
                            "displayValue": "1"
                        },
                        {
                            "name": "birdies",
                            "displayName": "Birdies",
                            "description": "Number of Birdies",
                            "abbreviation": "BIRDIES",
                            "value": 54.0,
                            "displayValue": "54"
                        },
                        {
                            "name": "pars",
                            "displayName": "Pars",
                            "description": "Number of Pars",
                            "abbreviation": "PARS",
                            "value": 204.0,
                            "displayValue": "204"
                        },
                        {
                            "name": "bogeys",
                            "displayName": "Bogeys",
                            "description": "Number of Bogeys",
                            "abbreviation": "BOGEYS",
                            "value": 40.0,
                            "displayValue": "40"
                        },
                        {
                            "name": "dBogey",
                            "displayName": "Double Bogeys",
                            "description": "Number of Double Bogeys",
                            "abbreviation": "DOUBLES",
                            "value": 4.0,
                            "displayValue": "4"
                        },
                        {
                            "name": "dBogeyPlus",
                            "displayName": "Other",
                            "description": "Other",
                            "abbreviation": "OTHERS",
                            "value": 2.0,
                            "displayValue": "2"
                        },
                        {
                            "name": "rank",
                            "displayName": "Rank",
                            "description": "Rank",
                            "abbreviation": "Rank",
                            "value": 11.0,
                            "displayValue": "11"
                        }
                    ]
                },
                {
                    "holeNumber": 12,
                    "holePar": 4,
                    "holeYards": 406,
                    "holeStatistics": [
                        {
                            "name": "scoreToPar",
                            "displayName": "Score To Par",
                            "description": "Score To Par",
                            "abbreviation": "+/- AVG",
                            "value": -0.023,
                            "displayValue": "-0.023"
                        },
                        {
                            "name": "avgScore",
                            "displayName": "Average Score",
                            "description": "Average Score",
                            "abbreviation": "AVG SCORE",
                            "value": 3.977,
                            "displayValue": "3.977"
                        },
                        {
                            "name": "eagles",
                            "displayName": "Eagles",
                            "description": "Number of Eagles",
                            "abbreviation": "EAGLES",
                            "value": 0.0,
                            "displayValue": "0"
                        },
                        {
                            "name": "birdies",
                            "displayName": "Birdies",
                            "description": "Number of Birdies",
                            "abbreviation": "BIRDIES",
                            "value": 70.0,
                            "displayValue": "70"
                        },
                        {
                            "name": "pars",
                            "displayName": "Pars",
                            "description": "Number of Pars",
                            "abbreviation": "PARS",
                            "value": 180.0,
                            "displayValue": "180"
                        },
                        {
                            "name": "bogeys",
                            "displayName": "Bogeys",
                            "description": "Number of Bogeys",
                            "abbreviation": "BOGEYS",
                            "value": 47.0,
                            "displayValue": "47"
                        },
                        {
                            "name": "dBogey",
                            "displayName": "Double Bogeys",
                            "description": "Number of Double Bogeys",
                            "abbreviation": "DOUBLES",
                            "value": 5.0,
                            "displayValue": "5"
                        },
                        {
                            "name": "dBogeyPlus",
                            "displayName": "Other",
                            "description": "Other",
                            "abbreviation": "OTHERS",
                            "value": 2.0,
                            "displayValue": "2"
                        },
                        {
                            "name": "rank",
                            "displayName": "Rank",
                            "description": "Rank",
                            "abbreviation": "Rank",
                            "value": 12.0,
                            "displayValue": "12"
                        }
                    ]
                },
                {
                    "holeNumber": 18,
                    "holePar": 4,
                    "holeYards": 388,
                    "holeStatistics": [
                        {
                            "name": "scoreToPar",
                            "displayName": "Score To Par",
                            "description": "Score To Par",
                            "abbreviation": "+/- AVG",
                            "value": -0.026,
                            "displayValue": "-0.026"
                        },
                        {
                            "name": "avgScore",
                            "displayName": "Average Score",
                            "description": "Average Score",
                            "abbreviation": "AVG SCORE",
                            "value": 3.974,
                            "displayValue": "3.974"
                        },
                        {
                            "name": "eagles",
                            "displayName": "Eagles",
                            "description": "Number of Eagles",
                            "abbreviation": "EAGLES",
                            "value": 0.0,
                            "displayValue": "0"
                        },
                        {
                            "name": "birdies",
                            "displayName": "Birdies",
                            "description": "Number of Birdies",
                            "abbreviation": "BIRDIES",
                            "value": 60.0,
                            "displayValue": "60"
                        },
                        {
                            "name": "pars",
                            "displayName": "Pars",
                            "description": "Number of Pars",
                            "abbreviation": "PARS",
                            "value": 197.0,
                            "displayValue": "197"
                        },
                        {
                            "name": "bogeys",
                            "displayName": "Bogeys",
                            "description": "Number of Bogeys",
                            "abbreviation": "BOGEYS",
                            "value": 42.0,
                            "displayValue": "42"
                        },
                        {
                            "name": "dBogey",
                            "displayName": "Double Bogeys",
                            "description": "Number of Double Bogeys",
                            "abbreviation": "DOUBLES",
                            "value": 5.0,
                            "displayValue": "5"
                        },
                        {
                            "name": "dBogeyPlus",
                            "displayName": "Other",
                            "description": "Other",
                            "abbreviation": "OTHERS",
                            "value": 0.0,
                            "displayValue": "0"
                        },
                        {
                            "name": "rank",
                            "displayName": "Rank",
                            "description": "Rank",
                            "abbreviation": "Rank",
                            "value": 13.0,
                            "displayValue": "13"
                        }
                    ]
                },
                {
                    "holeNumber": 6,
                    "holePar": 5,
                    "holeYards": 625,
                    "holeStatistics": [
                        {
                            "name": "scoreToPar",
                            "displayName": "Score To Par",
                            "description": "Score To Par",
                            "abbreviation": "+/- AVG",
                            "value": -0.039,
                            "displayValue": "-0.039"
                        },
                        {
                            "name": "avgScore",
                            "displayName": "Average Score",
                            "description": "Average Score",
                            "abbreviation": "AVG SCORE",
                            "value": 4.961,
                            "displayValue": "4.961"
                        },
                        {
                            "name": "eagles",
                            "displayName": "Eagles",
                            "description": "Number of Eagles",
                            "abbreviation": "EAGLES",
                            "value": 2.0,
                            "displayValue": "2"
                        },
                        {
                            "name": "birdies",
                            "displayName": "Birdies",
                            "description": "Number of Birdies",
                            "abbreviation": "BIRDIES",
                            "value": 88.0,
                            "displayValue": "88"
                        },
                        {
                            "name": "pars",
                            "displayName": "Pars",
                            "description": "Number of Pars",
                            "abbreviation": "PARS",
                            "value": 158.0,
                            "displayValue": "158"
                        },
                        {
                            "name": "bogeys",
                            "displayName": "Bogeys",
                            "description": "Number of Bogeys",
                            "abbreviation": "BOGEYS",
                            "value": 37.0,
                            "displayValue": "37"
                        },
                        {
                            "name": "dBogey",
                            "displayName": "Double Bogeys",
                            "description": "Number of Double Bogeys",
                            "abbreviation": "DOUBLES",
                            "value": 18.0,
                            "displayValue": "18"
                        },
                        {
                            "name": "dBogeyPlus",
                            "displayName": "Other",
                            "description": "Other",
                            "abbreviation": "OTHERS",
                            "value": 2.0,
                            "displayValue": "2"
                        },
                        {
                            "name": "rank",
                            "displayName": "Rank",
                            "description": "Rank",
                            "abbreviation": "Rank",
                            "value": 14.0,
                            "displayValue": "14"
                        }
                    ]
                },
                {
                    "holeNumber": 2,
                    "holePar": 4,
                    "holeYards": 387,
                    "holeStatistics": [
                        {
                            "name": "scoreToPar",
                            "displayName": "Score To Par",
                            "description": "Score To Par",
                            "abbreviation": "+/- AVG",
                            "value": -0.082,
                            "displayValue": "-0.082"
                        },
                        {
                            "name": "avgScore",
                            "displayName": "Average Score",
                            "description": "Average Score",
                            "abbreviation": "AVG SCORE",
                            "value": 3.918,
                            "displayValue": "3.918"
                        },
                        {
                            "name": "eagles",
                            "displayName": "Eagles",
                            "description": "Number of Eagles",
                            "abbreviation": "EAGLES",
                            "value": 0.0,
                            "displayValue": "0"
                        },
                        {
                            "name": "birdies",
                            "displayName": "Birdies",
                            "description": "Number of Birdies",
                            "abbreviation": "BIRDIES",
                            "value": 72.0,
                            "displayValue": "72"
                        },
                        {
                            "name": "pars",
                            "displayName": "Pars",
                            "description": "Number of Pars",
                            "abbreviation": "PARS",
                            "value": 189.0,
                            "displayValue": "189"
                        },
                        {
                            "name": "bogeys",
                            "displayName": "Bogeys",
                            "description": "Number of Bogeys",
                            "abbreviation": "BOGEYS",
                            "value": 41.0,
                            "displayValue": "41"
                        },
                        {
                            "name": "dBogey",
                            "displayName": "Double Bogeys",
                            "description": "Number of Double Bogeys",
                            "abbreviation": "DOUBLES",
                            "value": 3.0,
                            "displayValue": "3"
                        },
                        {
                            "name": "dBogeyPlus",
                            "displayName": "Other",
                            "description": "Other",
                            "abbreviation": "OTHERS",
                            "value": 0.0,
                            "displayValue": "0"
                        },
                        {
                            "name": "rank",
                            "displayName": "Rank",
                            "description": "Rank",
                            "abbreviation": "Rank",
                            "value": 15.0,
                            "displayValue": "15"
                        }
                    ]
                },
                {
                    "holeNumber": 1,
                    "holePar": 4,
                    "holeYards": 316,
                    "holeStatistics": [
                        {
                            "name": "scoreToPar",
                            "displayName": "Score To Par",
                            "description": "Score To Par",
                            "abbreviation": "+/- AVG",
                            "value": -0.285,
                            "displayValue": "-0.285"
                        },
                        {
                            "name": "avgScore",
                            "displayName": "Average Score",
                            "description": "Average Score",
                            "abbreviation": "AVG SCORE",
                            "value": 3.715,
                            "displayValue": "3.715"
                        },
                        {
                            "name": "eagles",
                            "displayName": "Eagles",
                            "description": "Number of Eagles",
                            "abbreviation": "EAGLES",
                            "value": 9.0,
                            "displayValue": "9"
                        },
                        {
                            "name": "birdies",
                            "displayName": "Birdies",
                            "description": "Number of Birdies",
                            "abbreviation": "BIRDIES",
                            "value": 113.0,
                            "displayValue": "113"
                        },
                        {
                            "name": "pars",
                            "displayName": "Pars",
                            "description": "Number of Pars",
                            "abbreviation": "PARS",
                            "value": 147.0,
                            "displayValue": "147"
                        },
                        {
                            "name": "bogeys",
                            "displayName": "Bogeys",
                            "description": "Number of Bogeys",
                            "abbreviation": "BOGEYS",
                            "value": 30.0,
                            "displayValue": "30"
                        },
                        {
                            "name": "dBogey",
                            "displayName": "Double Bogeys",
                            "description": "Number of Double Bogeys",
                            "abbreviation": "DOUBLES",
                            "value": 4.0,
                            "displayValue": "4"
                        },
                        {
                            "name": "dBogeyPlus",
                            "displayName": "Other",
                            "description": "Other",
                            "abbreviation": "OTHERS",
                            "value": 2.0,
                            "displayValue": "2"
                        },
                        {
                            "name": "rank",
                            "displayName": "Rank",
                            "description": "Rank",
                            "abbreviation": "Rank",
                            "value": 16.0,
                            "displayValue": "16"
                        }
                    ]
                },
                {
                    "holeNumber": 11,
                    "holePar": 5,
                    "holeYards": 622,
                    "holeStatistics": [
                        {
                            "name": "scoreToPar",
                            "displayName": "Score To Par",
                            "description": "Score To Par",
                            "abbreviation": "+/- AVG",
                            "value": -0.315,
                            "displayValue": "-0.315"
                        },
                        {
                            "name": "avgScore",
                            "displayName": "Average Score",
                            "description": "Average Score",
                            "abbreviation": "AVG SCORE",
                            "value": 4.685,
                            "displayValue": "4.685"
                        },
                        {
                            "name": "eagles",
                            "displayName": "Eagles",
                            "description": "Number of Eagles",
                            "abbreviation": "EAGLES",
                            "value": 7.0,
                            "displayValue": "7"
                        },
                        {
                            "name": "birdies",
                            "displayName": "Birdies",
                            "description": "Number of Birdies",
                            "abbreviation": "BIRDIES",
                            "value": 118.0,
                            "displayValue": "118"
                        },
                        {
                            "name": "pars",
                            "displayName": "Pars",
                            "description": "Number of Pars",
                            "abbreviation": "PARS",
                            "value": 152.0,
                            "displayValue": "152"
                        },
                        {
                            "name": "bogeys",
                            "displayName": "Bogeys",
                            "description": "Number of Bogeys",
                            "abbreviation": "BOGEYS",
                            "value": 20.0,
                            "displayValue": "20"
                        },
                        {
                            "name": "dBogey",
                            "displayName": "Double Bogeys",
                            "description": "Number of Double Bogeys",
                            "abbreviation": "DOUBLES",
                            "value": 8.0,
                            "displayValue": "8"
                        },
                        {
                            "name": "dBogeyPlus",
                            "displayName": "Other",
                            "description": "Other",
                            "abbreviation": "OTHERS",
                            "value": 0.0,
                            "displayValue": "0"
                        },
                        {
                            "name": "rank",
                            "displayName": "Rank",
                            "description": "Rank",
                            "abbreviation": "Rank",
                            "value": 17.0,
                            "displayValue": "17"
                        }
                    ]
                },
                {
                    "holeNumber": 15,
                    "holePar": 5,
                    "holeYards": 575,
                    "holeStatistics": [
                        {
                            "name": "scoreToPar",
                            "displayName": "Score To Par",
                            "description": "Score To Par",
                            "abbreviation": "+/- AVG",
                            "value": -0.507,
                            "displayValue": "-0.507"
                        },
                        {
                            "name": "avgScore",
                            "displayName": "Average Score",
                            "description": "Average Score",
                            "abbreviation": "AVG SCORE",
                            "value": 4.493,
                            "displayValue": "4.493"
                        },
                        {
                            "name": "eagles",
                            "displayName": "Eagles",
                            "description": "Number of Eagles",
                            "abbreviation": "EAGLES",
                            "value": 13.0,
                            "displayValue": "13"
                        },
                        {
                            "name": "birdies",
                            "displayName": "Birdies",
                            "description": "Number of Birdies",
                            "abbreviation": "BIRDIES",
                            "value": 146.0,
                            "displayValue": "146"
                        },
                        {
                            "name": "pars",
                            "displayName": "Pars",
                            "description": "Number of Pars",
                            "abbreviation": "PARS",
                            "value": 128.0,
                            "displayValue": "128"
                        },
                        {
                            "name": "bogeys",
                            "displayName": "Bogeys",
                            "description": "Number of Bogeys",
                            "abbreviation": "BOGEYS",
                            "value": 16.0,
                            "displayValue": "16"
                        },
                        {
                            "name": "dBogey",
                            "displayName": "Double Bogeys",
                            "description": "Number of Double Bogeys",
                            "abbreviation": "DOUBLES",
                            "value": 1.0,
                            "displayValue": "1"
                        },
                        {
                            "name": "dBogeyPlus",
                            "displayName": "Other",
                            "description": "Other",
                            "abbreviation": "OTHERS",
                            "value": 0.0,
                            "displayValue": "0"
                        },
                        {
                            "name": "rank",
                            "displayName": "Rank",
                            "description": "Rank",
                            "abbreviation": "Rank",
                            "value": 18.0,
                            "displayValue": "18"
                        }
                    ]
                }
            ]
        }
    ]
}