{
    "uid": "s:1100~l:1106~e:3736",
    "tournament": {
        "numberOfRounds": 4,
        "id": "241",
        "cutCount": 0,
        "cutScore": 0,
        "displayName": "Las Rozas World Golf Championships",
        "cutRound": 0,
        "major": false
    },
    "displayPurse": "$9,750,000",
    "courses": [
        {
            "totalYards": 7330,
            "id": "10785",
            "shotsToPar": 71,
            "parIn": 36,
            "name": "Club de Golf Chapultepec",
            "parOut": 35,
            "holes": [
                {
                    "totalYards": 316,
                    "shotsToPar": 4,
                    "number": 1
                },
                {
                    "totalYards": 387,
                    "shotsToPar": 4,
                    "number": 2
                },
                {
                    "totalYards": 186,
                    "shotsToPar": 3,
                    "number": 3
                },
                {
                    "totalYards": 506,
                    "shotsToPar": 4,
                    "number": 4
                },
                {
                    "totalYards": 445,
                    "shotsToPar": 4,
                    "number": 5
                },
                {
                    "totalYards": 625,
                    "shotsToPar": 5,
                    "number": 6
                },
                {
                    "totalYards": 235,
                    "shotsToPar": 3,
                    "number": 7
                },
                {
                    "totalYards": 525,
                    "shotsToPar": 4,
                    "number": 8
                },
                {
                    "totalYards": 382,
                    "shotsToPar": 4,
                    "number": 9
                },
                {
                    "totalYards": 450,
                    "shotsToPar": 4,
                    "number": 10
                },
                {
                    "totalYards": 622,
                    "shotsToPar": 5,
                    "number": 11
                },
                {
                    "totalYards": 406,
                    "shotsToPar": 4,
                    "number": 12
                },
                {
                    "totalYards": 225,
                    "shotsToPar": 3,
                    "number": 13
                },
                {
                    "totalYards": 482,
                    "shotsToPar": 4,
                    "number": 14
                },
                {
                    "totalYards": 575,
                    "shotsToPar": 5,
                    "number": 15
                },
                {
                    "totalYards": 403,
                    "shotsToPar": 4,
                    "number": 16
                },
                {
                    "totalYards": 172,
                    "shotsToPar": 3,
                    "number": 17
                },
                {
                    "totalYards": 388,
                    "shotsToPar": 4,
                    "number": 18
                }
            ]
        }
    ],
    "playoffType": {
        "id": 0,
        "minimumHoles": 1,
        "description": "Sudden Death"
    },
    "purse": 9750000,
    "status": {
        "type": {
            "id": "3",
            "description": "Final",
            "name": "STATUS_FINAL",
            "state": "post",
            "completed": true
        }
    },
    "winner": {
        "id": "3448",
        "displayName": "Dustin Johnson"
    },
    "endDate": "2017-03-05T05:00Z",
    "links": [
        {
            "text": "Summary",
            "isPremium": false,
            "shortText": "Summary",
            "rel": [
                "summary",
                "desktop",
                "event"
            ],
            "language": "en",
            "href": "http://www.espn.com/golf/leaderboard?tournamentId=3735",
            "isExternal": false
        }
    ],
    "date": "2017-03-02T05:00Z",
    "league": {
        "id": "1106",
        "name": "Pro Golfer's Association",
        "slug": "pga",
        "shortName": "PGA Tour",
        "abbreviation": "PGA"
    },
    "hasCourseStats": true,
    "hasPlayerStats": true,
    "id": "3735",
    "competitions": [
        {
            "onWatchESPN": false,
            "scoringSystem": {
                "id": "3",
                "name": "Medal"
            },
            "status": {
                "type": {
                    "shortDetail": "Complete",
                    "detail": "Complete",
                    "description": "Final",
                    "state": "post"
                },
                "period": 4
            },
            "competitors": [
                {
                    "uid": "s:1100~l:1106~a:225",
                    "id": "225",
                    "status": {
                        "position": {
                            "id": "2",
                            "isTie": false,
                            "displayName": "2"
                        },
                        "playoff": false,
                        "thru": 18,
                        "behindCurrentRound": false,
                        "teeTime": "2017-03-05T17:48Z",
                        "displayValue": "F",
                        "type": {
                            "id": "2",
                            "shortDetail": "F",
                            "detail": "Finish",
                            "description": "Finish",
                            "name": "STATUS_FINISH",
                            "state": "post",
                            "completed": true
                        },
                        "period": 4,
                        "displayThru": "18",
                        "startHole": 1,
                        "hole": 18
                    },
                    "sortOrder": 2,
                    "movement": -5,
                    "linescores": [
                        {
                            "teeTime": "2017-03-02T20:47Z",
                            "hasStream": false,
                            "value": 69,
                            "currentPosition": 14,
                            "outScore": 33,
                            "period": 1,
                            "displayValue": "-2",
                            "inScore": 36,
                            "startPosition": 14
                        },
                        {
                            "teeTime": "2017-03-03T22:04Z",
                            "hasStream": false,
                            "value": 70,
                            "currentPosition": 19,
                            "outScore": 35,
                            "period": 2,
                            "displayValue": "-1",
                            "inScore": 35,
                            "startPosition": 14
                        },
                        {
                            "teeTime": "2017-03-04T19:42Z",
                            "hasStream": false,
                            "value": 66,
                            "currentPosition": 7,
                            "outScore": 34,
                            "period": 3,
                            "displayValue": "-5",
                            "inScore": 32,
                            "startPosition": 19
                        },
                        {
                            "teeTime": "2017-03-05T20:48Z",
                            "hasStream": false,
                            "value": 66,
                            "currentPosition": 2,
                            "outScore": 34,
                            "period": 4,
                            "displayValue": "-5",
                            "inScore": 32,
                            "startPosition": 7
                        }
                    ],
                    "score": {
                        "value": 271,
                        "displayValue": "-13"
                    },
                    "featured": false,
                    "athlete": {
                        "id": "225",
                        "flag": {
                            "alt": "England",
                            "href": "http://a.espncdn.com/i/teamlogos/countries/500/eng.png"
                        },
                        "links": [
                            {
                                "href": "http://www.espn.com/golf/player/_/id/5539/tommy-fleetwood"
                            }
                        ],
                        "displayName": "Las Rejas corto"
                    },
                    "statistics": [
                        {
                            "name": "scoreToPar",
                            "displayValue": "-13"
                        },
                        {
                            "name": "officialAmount",
                            "displayValue": "$1,045,000.00"
                        },
                        {
                            "name": "cupPoints",
                            "displayValue": "0"
                        }
                    ]
                },
                {
                    "uid": "s:1100~l:1106~a:222",
                    "id": "222",
                    "status": {
                        "position": {
                            "id": "2",
                            "isTie": false,
                            "displayName": "2"
                        },
                        "playoff": false,
                        "thru": 18,
                        "behindCurrentRound": false,
                        "teeTime": "2017-03-05T17:48Z",
                        "displayValue": "F",
                        "type": {
                            "id": "2",
                            "shortDetail": "F",
                            "detail": "Finish",
                            "description": "Finish",
                            "name": "STATUS_FINISH",
                            "state": "post",
                            "completed": true
                        },
                        "period": 4,
                        "displayThru": "18",
                        "startHole": 1,
                        "hole": 18
                    },
                    "sortOrder": 2,
                    "movement": -5,
                    "linescores": [
                        {
                            "teeTime": "2017-03-02T20:47Z",
                            "hasStream": false,
                            "value": 69,
                            "currentPosition": 14,
                            "outScore": 33,
                            "period": 1,
                            "displayValue": "-2",
                            "inScore": 36,
                            "startPosition": 14
                        },
                        {
                            "teeTime": "2017-03-03T22:04Z",
                            "hasStream": false,
                            "value": 70,
                            "currentPosition": 19,
                            "outScore": 35,
                            "period": 2,
                            "displayValue": "-1",
                            "inScore": 35,
                            "startPosition": 14
                        },
                        {
                            "teeTime": "2017-03-04T19:42Z",
                            "hasStream": false,
                            "value": 66,
                            "currentPosition": 7,
                            "outScore": 34,
                            "period": 3,
                            "displayValue": "-5",
                            "inScore": 32,
                            "startPosition": 19
                        },
                        {
                            "teeTime": "2017-03-05T20:48Z",
                            "hasStream": false,
                            "value": 66,
                            "currentPosition": 2,
                            "outScore": 34,
                            "period": 4,
                            "displayValue": "-5",
                            "inScore": 32,
                            "startPosition": 7
                        }
                    ],
                    "score": {
                        "value": 271,
                        "displayValue": "-13"
                    },
                    "featured": false,
                    "athlete": {
                        "id": "222",
                        "flag": {
                            "alt": "England",
                            "href": "http://a.espncdn.com/i/teamlogos/countries/500/eng.png"
                        },
                        "links": [
                            {
                                "href": "http://www.espn.com/golf/player/_/id/5539/tommy-fleetwood"
                            }
                        ],
                        "displayName": "Las Rejas corto"
                    },
                    "statistics": [
                        {
                            "name": "scoreToPar",
                            "displayValue": "-13"
                        },
                        {
                            "name": "officialAmount",
                            "displayValue": "$1,045,000.00"
                        },
                        {
                            "name": "cupPoints",
                            "displayValue": "0"
                        }
                    ]
                },
                {
                    "uid": "s:1100~l:1106~a:3448",
                    "id": "3448",
                    "status": {
                        "position": {
                            "id": "1",
                            "isTie": false,
                            "displayName": "1"
                        },
                        "playoff": false,
                        "thru": 18,
                        "behindCurrentRound": false,
                        "teeTime": "2017-03-05T18:10Z",
                        "displayValue": "F",
                        "type": {
                            "id": "2",
                            "shortDetail": "F",
                            "detail": "Finish",
                            "description": "Finish",
                            "name": "STATUS_FINISH",
                            "state": "post",
                            "completed": true
                        },
                        "period": 4,
                        "displayThru": "18",
                        "startHole": 1,
                        "hole": 18
                    },
                    "sortOrder": 1,
                    "movement": -1,
                    "linescores": [
                        {
                            "teeTime": "2017-03-02T20:36Z",
                            "hasStream": false,
                            "value": 70,
                            "currentPosition": 20,
                            "outScore": 36,
                            "period": 1,
                            "displayValue": "-1",
                            "inScore": 34,
                            "startPosition": 20
                        },
                        {
                            "teeTime": "2017-03-03T21:53Z",
                            "hasStream": false,
                            "value": 66,
                            "currentPosition": 5,
                            "outScore": 33,
                            "period": 2,
                            "displayValue": "-5",
                            "inScore": 33,
                            "startPosition": 20
                        },
                        {
                            "teeTime": "2017-03-04T20:48Z",
                            "hasStream": false,
                            "value": 66,
                            "currentPosition": 2,
                            "outScore": 31,
                            "period": 3,
                            "displayValue": "-5",
                            "inScore": 35,
                            "startPosition": 5
                        },
                        {
                            "teeTime": "2017-03-05T21:10Z",
                            "hasStream": false,
                            "value": 68,
                            "currentPosition": 1,
                            "outScore": 31,
                            "period": 4,
                            "displayValue": "-3",
                            "inScore": 37,
                            "startPosition": 2
                        }
                    ],
                    "score": {
                        "value": 270,
                        "displayValue": "-14"
                    },
                    "featured": false,
                    "athlete": {
                        "id": "3448",
                        "headshot": {
                            "href": "http://a.espncdn.com/i/headshots/golf/players/full/3448.png"
                        },
                        "flag": {
                            "alt": "United States",
                            "href": "http://a.espncdn.com/i/teamlogos/countries/500/usa.png"
                        },
                        "links": [
                            {
                                "href": "http://www.espn.com/golf/player/_/id/3448/dustin-johnson"
                            }
                        ],
                        "displayName": "Dustin Johnson",
                        "birthPlace": {
                            "countryAbbreviation": "usa",
                            "stateAbbreviation": "SC"
                        }
                    },
                    "statistics": [
                        {
                            "name": "scoreToPar",
                            "displayValue": "-14"
                        },
                        {
                            "name": "officialAmount",
                            "displayValue": "$1,660,000.00"
                        },
                        {
                            "name": "cupPoints",
                            "displayValue": "550"
                        }
                    ]
                },
                {
                    "uid": "s:1100~l:1106~a:5539",
                    "id": "5539",
                    "status": {
                        "position": {
                            "id": "2",
                            "isTie": false,
                            "displayName": "2"
                        },
                        "playoff": false,
                        "thru": 18,
                        "behindCurrentRound": false,
                        "teeTime": "2017-03-05T17:48Z",
                        "displayValue": "F",
                        "type": {
                            "id": "2",
                            "shortDetail": "F",
                            "detail": "Finish",
                            "description": "Finish",
                            "name": "STATUS_FINISH",
                            "state": "post",
                            "completed": true
                        },
                        "period": 4,
                        "displayThru": "18",
                        "startHole": 1,
                        "hole": 18
                    },
                    "sortOrder": 2,
                    "movement": -5,
                    "linescores": [
                        {
                            "teeTime": "2017-03-02T20:47Z",
                            "hasStream": false,
                            "value": 69,
                            "currentPosition": 14,
                            "outScore": 33,
                            "period": 1,
                            "displayValue": "-2",
                            "inScore": 36,
                            "startPosition": 14
                        },
                        {
                            "teeTime": "2017-03-03T22:04Z",
                            "hasStream": false,
                            "value": 70,
                            "currentPosition": 19,
                            "outScore": 35,
                            "period": 2,
                            "displayValue": "-1",
                            "inScore": 35,
                            "startPosition": 14
                        },
                        {
                            "teeTime": "2017-03-04T19:42Z",
                            "hasStream": false,
                            "value": 66,
                            "currentPosition": 7,
                            "outScore": 34,
                            "period": 3,
                            "displayValue": "-5",
                            "inScore": 32,
                            "startPosition": 19
                        },
                        {
                            "teeTime": "2017-03-05T20:48Z",
                            "hasStream": false,
                            "value": 66,
                            "currentPosition": 2,
                            "outScore": 34,
                            "period": 4,
                            "displayValue": "-5",
                            "inScore": 32,
                            "startPosition": 7
                        }
                    ],
                    "score": {
                        "value": 271,
                        "displayValue": "-13"
                    },
                    "featured": false,
                    "athlete": {
                        "id": "5539",
                        "flag": {
                            "alt": "England",
                            "href": "http://a.espncdn.com/i/teamlogos/countries/500/eng.png"
                        },
                        "links": [
                            {
                                "href": "http://www.espn.com/golf/player/_/id/5539/tommy-fleetwood"
                            }
                        ],
                        "displayName": "Tommy Fleetwood"
                    },
                    "statistics": [
                        {
                            "name": "scoreToPar",
                            "displayValue": "-13"
                        },
                        {
                            "name": "officialAmount",
                            "displayValue": "$1,045,000.00"
                        },
                        {
                            "name": "cupPoints",
                            "displayValue": "0"
                        }
                    ]
                },
                {
                    "uid": "s:1100~l:1106~a:3462",
                    "id": "3462",
                    "status": {
                        "position": {
                            "id": "3",
                            "isTie": true,
                            "displayName": "T3"
                        },
                        "playoff": false,
                        "thru": 18,
                        "behindCurrentRound": false,
                        "teeTime": "2017-03-05T17:26Z",
                        "displayValue": "F",
                        "type": {
                            "id": "2",
                            "shortDetail": "F",
                            "detail": "Finish",
                            "description": "Finish",
                            "name": "STATUS_FINISH",
                            "state": "post",
                            "completed": true
                        },
                        "period": 4,
                        "displayThru": "18",
                        "startHole": 1,
                        "hole": 18
                    },
                    "sortOrder": 3,
                    "movement": -11,
                    "linescores": [
                        {
                            "teeTime": "2017-03-02T20:14Z",
                            "hasStream": false,
                            "value": 67,
                            "currentPosition": 1,
                            "outScore": 33,
                            "period": 1,
                            "displayValue": "-4",
                            "inScore": 34,
                            "startPosition": 1
                        },
                        {
                            "teeTime": "2017-03-03T21:31Z",
                            "hasStream": false,
                            "value": 68,
                            "currentPosition": 2,
                            "outScore": 35,
                            "period": 2,
                            "displayValue": "-3",
                            "inScore": 33,
                            "startPosition": 1
                        },
                        {
                            "teeTime": "2017-03-04T21:10Z",
                            "hasStream": false,
                            "value": 72,
                            "currentPosition": 14,
                            "outScore": 35,
                            "period": 3,
                            "displayValue": "+1",
                            "inScore": 37,
                            "startPosition": 2
                        },
                        {
                            "teeTime": "2017-03-05T20:26Z",
                            "hasStream": false,
                            "value": 65,
                            "currentPosition": 3,
                            "outScore": 33,
                            "period": 4,
                            "displayValue": "-6",
                            "inScore": 32,
                            "startPosition": 14
                        }
                    ],
                    "score": {
                        "value": 272,
                        "displayValue": "-12"
                    },
                    "featured": false,
                    "athlete": {
                        "id": "3462",
                        "headshot": {
                            "href": "http://a.espncdn.com/i/headshots/golf/players/full/3462.png"
                        },
                        "flag": {
                            "alt": "England",
                            "href": "http://a.espncdn.com/i/teamlogos/countries/500/eng.png"
                        },
                        "links": [
                            {
                                "href": "http://www.espn.com/golf/player/_/id/3462/ross-fisher"
                            }
                        ],
                        "displayName": "Ross Fisher",
                        "birthPlace": {
                            "countryAbbreviation": "eng"
                        }
                    },
                    "statistics": [
                        {
                            "name": "scoreToPar",
                            "displayValue": "-12"
                        },
                        {
                            "name": "officialAmount",
                            "displayValue": "$497,000.00"
                        },
                        {
                            "name": "cupPoints",
                            "displayValue": "0"
                        }
                    ]
                },
                {
                    "uid": "s:1100~l:1106~a:9780",
                    "id": "9780",
                    "status": {
                        "position": {
                            "id": "3",
                            "isTie": true,
                            "displayName": "T3"
                        },
                        "playoff": false,
                        "thru": 18,
                        "behindCurrentRound": false,
                        "teeTime": "2017-03-05T17:59Z",
                        "displayValue": "F",
                        "type": {
                            "id": "2",
                            "shortDetail": "F",
                            "detail": "Finish",
                            "description": "Finish",
                            "name": "STATUS_FINISH",
                            "state": "post",
                            "completed": true
                        },
                        "period": 4,
                        "displayThru": "18",
                        "startHole": 1,
                        "hole": 18
                    },
                    "sortOrder": 4,
                    "movement": -2,
                    "linescores": [
                        {
                            "teeTime": "2017-03-02T20:58Z",
                            "hasStream": false,
                            "value": 67,
                            "currentPosition": 1,
                            "outScore": 34,
                            "period": 1,
                            "displayValue": "-4",
                            "inScore": 33,
                            "startPosition": 1
                        },
                        {
                            "teeTime": "2017-03-03T22:15Z",
                            "hasStream": false,
                            "value": 70,
                            "currentPosition": 8,
                            "outScore": 34,
                            "period": 2,
                            "displayValue": "-1",
                            "inScore": 36,
                            "startPosition": 1
                        },
                        {
                            "teeTime": "2017-03-04T20:26Z",
                            "hasStream": false,
                            "value": 67,
                            "currentPosition": 5,
                            "outScore": 34,
                            "period": 3,
                            "displayValue": "-4",
                            "inScore": 33,
                            "startPosition": 8
                        },
                        {
                            "teeTime": "2017-03-05T20:59Z",
                            "hasStream": false,
                            "value": 68,
                            "currentPosition": 3,
                            "outScore": 34,
                            "period": 4,
                            "displayValue": "-3",
                            "inScore": 34,
                            "startPosition": 5
                        }
                    ],
                    "score": {
                        "value": 272,
                        "displayValue": "-12"
                    },
                    "featured": false,
                    "athlete": {
                        "id": "9780",
                        "headshot": {
                            "href": "http://a.espncdn.com/i/headshots/golf/players/full/9780.png"
                        },
                        "flag": {
                            "alt": "Spain",
                            "href": "http://a.espncdn.com/i/teamlogos/countries/500/esp.png"
                        },
                        "links": [
                            {
                                "href": "http://www.espn.com/golf/player/_/id/9780/jon-rahm"
                            }
                        ],
                        "displayName": "Jon Rahm"
                    },
                    "statistics": [
                        {
                            "name": "scoreToPar",
                            "displayValue": "-12"
                        },
                        {
                            "name": "officialAmount",
                            "displayValue": "$497,000.00"
                        },
                        {
                            "name": "cupPoints",
                            "displayValue": "170"
                        }
                    ]
                },
                {
                    "uid": "s:1100~l:1106~a:9031",
                    "id": "9031",
                    "status": {
                        "position": {
                            "id": "5",
                            "isTie": true,
                            "displayName": "T5"
                        },
                        "playoff": false,
                        "thru": 18,
                        "behindCurrentRound": false,
                        "teeTime": "2017-03-05T17:48Z",
                        "displayValue": "F",
                        "type": {
                            "id": "2",
                            "shortDetail": "F",
                            "detail": "Finish",
                            "description": "Finish",
                            "name": "STATUS_FINISH",
                            "state": "post",
                            "completed": true
                        },
                        "period": 4,
                        "displayThru": "18",
                        "startHole": 1,
                        "hole": 18
                    },
                    "sortOrder": 5,
                    "movement": -2,
                    "linescores": [
                        {
                            "teeTime": "2017-03-02T22:15Z",
                            "hasStream": false,
                            "value": 68,
                            "currentPosition": 7,
                            "outScore": 34,
                            "period": 1,
                            "displayValue": "-3",
                            "inScore": 34,
                            "startPosition": 7
                        },
                        {
                            "teeTime": "2017-03-03T21:09Z",
                            "hasStream": false,
                            "value": 69,
                            "currentPosition": 8,
                            "outScore": 34,
                            "period": 2,
                            "displayValue": "-2",
                            "inScore": 35,
                            "startPosition": 7
                        },
                        {
                            "teeTime": "2017-03-04T20:37Z",
                            "hasStream": false,
                            "value": 68,
                            "currentPosition": 7,
                            "outScore": 34,
                            "period": 3,
                            "displayValue": "-3",
                            "inScore": 34,
                            "startPosition": 8
                        },
                        {
                            "teeTime": "2017-03-05T20:48Z",
                            "hasStream": false,
                            "value": 68,
                            "currentPosition": 5,
                            "outScore": 32,
                            "period": 4,
                            "displayValue": "-3",
                            "inScore": 36,
                            "startPosition": 7
                        }
                    ],
                    "score": {
                        "value": 273,
                        "displayValue": "-11"
                    },
                    "featured": false,
                    "athlete": {
                        "id": "9031",
                        "flag": {
                            "alt": "Belgium",
                            "href": "http://a.espncdn.com/i/teamlogos/countries/500/bel.png"
                        },
                        "links": [
                            {
                                "href": "http://www.espn.com/golf/player/_/id/9031/thomas-pieters"
                            }
                        ],
                        "displayName": "Thomas Pieters"
                    },
                    "statistics": [
                        {
                            "name": "scoreToPar",
                            "displayValue": "-11"
                        },
                        {
                            "name": "officialAmount",
                            "displayValue": "$312,500.00"
                        },
                        {
                            "name": "cupPoints",
                            "displayValue": "0"
                        }
                    ]
                },
                {
                    "uid": "s:1100~l:1106~a:4848",
                    "id": "4848",
                    "status": {
                        "position": {
                            "id": "5",
                            "isTie": true,
                            "displayName": "T5"
                        },
                        "playoff": false,
                        "thru": 18,
                        "behindCurrentRound": false,
                        "teeTime": "2017-03-05T18:10Z",
                        "displayValue": "F",
                        "type": {
                            "id": "2",
                            "shortDetail": "F",
                            "detail": "Finish",
                            "description": "Finish",
                            "name": "STATUS_FINISH",
                            "state": "post",
                            "completed": true
                        },
                        "period": 4,
                        "displayThru": "18",
                        "startHole": 1,
                        "hole": 18
                    },
                    "sortOrder": 6,
                    "movement": 4,
                    "linescores": [
                        {
                            "teeTime": "2017-03-02T20:47Z",
                            "hasStream": false,
                            "value": 69,
                            "currentPosition": 14,
                            "outScore": 34,
                            "period": 1,
                            "displayValue": "-2",
                            "inScore": 35,
                            "startPosition": 14
                        },
                        {
                            "teeTime": "2017-03-03T22:04Z",
                            "hasStream": false,
                            "value": 66,
                            "currentPosition": 2,
                            "outScore": 33,
                            "period": 2,
                            "displayValue": "-5",
                            "inScore": 33,
                            "startPosition": 14
                        },
                        {
                            "teeTime": "2017-03-04T20:59Z",
                            "hasStream": false,
                            "value": 66,
                            "currentPosition": 1,
                            "outScore": 35,
                            "period": 3,
                            "displayValue": "-5",
                            "inScore": 31,
                            "startPosition": 2
                        },
                        {
                            "teeTime": "2017-03-05T21:10Z",
                            "hasStream": false,
                            "value": 72,
                            "currentPosition": 5,
                            "outScore": 38,
                            "period": 4,
                            "displayValue": "+1",
                            "inScore": 34,
                            "startPosition": 1
                        }
                    ],
                    "score": {
                        "value": 273,
                        "displayValue": "-11"
                    },
                    "featured": false,
                    "athlete": {
                        "id": "4848",
                        "headshot": {
                            "href": "http://a.espncdn.com/i/headshots/golf/players/full/4848.png"
                        },
                        "flag": {
                            "alt": "United States",
                            "href": "http://a.espncdn.com/i/teamlogos/countries/500/usa.png"
                        },
                        "links": [
                            {
                                "href": "http://www.espn.com/golf/player/_/id/4848/justin-thomas"
                            }
                        ],
                        "displayName": "Justin Thomas",
                        "birthPlace": {
                            "countryAbbreviation": "usa",
                            "stateAbbreviation": "KY"
                        }
                    },
                    "statistics": [
                        {
                            "name": "scoreToPar",
                            "displayValue": "-11"
                        },
                        {
                            "name": "officialAmount",
                            "displayValue": "$312,500.00"
                        },
                        {
                            "name": "cupPoints",
                            "displayValue": "110"
                        }
                    ]
                },
                {
                    "uid": "s:1100~l:1106~a:1222",
                    "id": "1222",
                    "status": {
                        "position": {
                            "id": "7",
                            "isTie": true,
                            "displayName": "T7"
                        },
                        "playoff": false,
                        "thru": 18,
                        "behindCurrentRound": false,
                        "teeTime": "2017-03-05T17:15Z",
                        "displayValue": "F",
                        "type": {
                            "id": "2",
                            "shortDetail": "F",
                            "detail": "Finish",
                            "description": "Finish",
                            "name": "STATUS_FINISH",
                            "state": "post",
                            "completed": true
                        },
                        "period": 4,
                        "displayThru": "18",
                        "startHole": 1,
                        "hole": 18
                    },
                    "sortOrder": 7,
                    "movement": -11,
                    "linescores": [
                        {
                            "teeTime": "2017-03-02T21:31Z",
                            "hasStream": false,
                            "value": 75,
                            "currentPosition": 61,
                            "outScore": 38,
                            "period": 1,
                            "displayValue": "+4",
                            "inScore": 37,
                            "startPosition": 61
                        },
                        {
                            "teeTime": "2017-03-03T20:25Z",
                            "hasStream": false,
                            "value": 68,
                            "currentPosition": 40,
                            "outScore": 36,
                            "period": 2,
                            "displayValue": "-3",
                            "inScore": 32,
                            "startPosition": 61
                        },
                        {
                            "teeTime": "2017-03-04T18:58Z",
                            "hasStream": false,
                            "value": 66,
                            "currentPosition": 18,
                            "outScore": 35,
                            "period": 3,
                            "displayValue": "-5",
                            "inScore": 31,
                            "startPosition": 40
                        },
                        {
                            "teeTime": "2017-03-05T20:15Z",
                            "hasStream": false,
                            "value": 65,
                            "currentPosition": 7,
                            "outScore": 33,
                            "period": 4,
                            "displayValue": "-6",
                            "inScore": 32,
                            "startPosition": 18
                        }
                    ],
                    "score": {
                        "value": 274,
                        "displayValue": "-10"
                    },
                    "featured": false,
                    "athlete": {
                        "id": "1222",
                        "headshot": {
                            "href": "http://a.espncdn.com/i/headshots/golf/players/full/1222.png"
                        },
                        "flag": {
                            "alt": "United States",
                            "href": "http://a.espncdn.com/i/teamlogos/countries/500/usa.png"
                        },
                        "links": [
                            {
                                "href": "http://www.espn.com/golf/player/_/id/1222/brandt-snedeker"
                            }
                        ],
                        "displayName": "Brandt Snedeker",
                        "birthPlace": {
                            "countryAbbreviation": "usa",
                            "stateAbbreviation": "TN"
                        }
                    },
                    "statistics": [
                        {
                            "name": "scoreToPar",
                            "displayValue": "-10"
                        },
                        {
                            "name": "officialAmount",
                            "displayValue": "$211,666.67"
                        },
                        {
                            "name": "cupPoints",
                            "displayValue": "89"
                        }
                    ]
                }
            ],
            "dataFormat": "API",
            "leaders": [
                {
                    "shortDisplayName": "Driving Distance",
                    "name": "driveDistAvg",
                    "abbreviation": "YDS/DRV",
                    "displayName": "Driving Distance",
                    "leaders": [
                        {
                            "value": 333.79998779296875,
                            "displayValue": "333.8",
                            "athlete": {
                                "id": "780",
                                "displayName": "Bubba Watson"
                            }
                        }
                    ]
                },
                {
                    "shortDisplayName": "Driving Accuracy",
                    "name": "fwysHit",
                    "abbreviation": "DRV ACC",
                    "displayName": "Driving Accuracy",
                    "leaders": [
                        {
                            "value": 80.36000061035156,
                            "displayValue": "80.4",
                            "athlete": {
                                "id": "9037",
                                "displayName": "Matthew Fitzpatrick"
                            }
                        }
                    ]
                },
                {
                    "shortDisplayName": "Greens in Regulation",
                    "name": "gir",
                    "abbreviation": "GIR",
                    "displayName": "Greens in Regulation",
                    "leaders": [
                        {
                            "value": 80.55999755859375,
                            "displayValue": "80.6",
                            "athlete": {
                                "id": "4831",
                                "displayName": "Joost Luiten"
                            }
                        }
                    ]
                },
                {
                    "shortDisplayName": "Putts per GIR",
                    "name": "puttsGirAvg",
                    "abbreviation": "PP GIR",
                    "displayName": "Putts per GIR",
                    "leaders": [
                        {
                            "value": 1.5219999551773071,
                            "displayValue": "1.522",
                            "athlete": {
                                "id": "4848",
                                "displayName": "Justin Thomas"
                            }
                        }
                    ]
                }
            ],
            "broadcasts": [
                {
                    "region": "us",
                    "lang": "en",
                    "media": {
                        "id": "5",
                        "name": "NBC",
                        "callLetters": "NBC",
                        "shortName": "NBC"
                    }
                },
                {
                    "region": "us",
                    "lang": "en",
                    "media": {
                        "id": "9",
                        "name": "TGC",
                        "callLetters": "TGC",
                        "shortName": "TGC"
                    }
                }
            ]
        }
    ],
    "defendingChampion": {
        "season": 2016,
        "athlete": {
            "id": "388",
            "displayName": "Adam Scott"
        }
    },
    "season": {
        "year": 2017
    },
    "primary": false,
    "name": "World Golf Championships",
    "shortName": "World Golf Championships"
}